{
    "status": "Success",
    "code": 200,
    "data": [
      {
        "_id": "5cf5ff33df0321142b5c0b76",
        "enabled": true,
        "mobileVerification": true,
        "emailVerification": true,
        "name": "Sivateja",
        "password": "$2a$10$C7.Wo87TWgjWV.E0lddrTe/YhZbAn8pmsTIR7Y3u8Ayepuu4vUjky",
        "email": "palepusivateja.spp@gmail.com",
        "phone": "7093502755",
        "userType": "PARENT",
        "noOfChildrens": 3,
        "otp": "7393",
        "status": "Active",
        "updatedOn": "2019-06-04T08:17:18.089Z",
        "createdOn": "2019-06-04T05:18:43.002Z",
        "__v": 0,
        "dialCode": "65",
        "countryCode": "65",
        "mediumOfRegistration": "phone"
      },
      {
        "_id": "5cf5ffebdf0321142b5c0b78",
        "enabled": true,
        "mobileVerification": true,
        "emailVerification": true,
        "name": "Sivateja",
        "password": "$2a$10$rfRjclIWpYucXg8fYnkVveUAXdY9Tk9Sfvy4OHAuhGAblVFiAOX/6",
        "email": "palepusivateja.sp@gmail.com",
        "phone": "7093502757",
        "userType": "COACH",
        "otp": "1935",
        "locality": "Adibatla",
        "status": "Active",
        "updatedOn": "2019-06-04T05:25:29.784Z",
        "createdOn": "2019-06-04T05:21:47.012Z",
        "__v": 0,
        "description": "Hi",
        "experience": "2",
        "subjectId": "5cf5ff05df0321142b5c0b6f",
        "dialCode": "65",
        "countryCode": "65",
        "mediumOfRegistration": "phone"
      },
      {
        "_id": "5d10e4a28cbaa73047c644b9",
        "enabled": true,
        "mobileVerification": true,
        "emailVerification": true,
        "name": "Santoshi",
        "password": "$2a$10$bt6rpAc2KL2M.YzvkPBDsOqhOVtNIGiCdEcyl/fVUmsU/s3X3lt76",
        "email": "mahajanamratnasanthoshi@gmail.com",
        "phone": "7702858931",
        "userType": "PARENT",
        "noOfChildrens": 2,
        "otp": "1234",
        "status": "Active",
        "updatedOn": "2019-07-24T13:05:25.082Z",
        "createdOn": "2019-06-24T14:56:34.737Z",
        "__v": 0,
        "dialCode": "65",
        "countryCode": "65",
        "mediumOfRegistration": "phone"
      },
      {
        "_id": "5d10e98f8cbaa73047c644be",
        "enabled": true,
        "mobileVerification": true,
        "emailVerification": true,
        "name": "Siva",
        "password": "$2a$10$vGR/vhkcXT.H6OergxyWVurdeaQ10jvhfouHNOLUQYQhhVxPiQQUa",
        "email": "palepusivateja@gmail.com",
        "phone": "7093502765",
        "userType": "PARENT",
        "noOfChildrens": 1,
        "otp": "1234",
        "status": "Active",
        "updatedOn": "2019-07-19T08:15:20.856Z",
        "createdOn": "2019-06-24T15:17:35.630Z",
        "__v": 0,
        "dialCode": "65",
        "countryCode": "65",
        "mediumOfRegistration": "phone"
      },
      {
        "_id": "5d125889e009cc3f0c83074e",
        "enabled": true,
        "mobileVerification": true,
        "emailVerification": true,
        "name": "Ratna Santhoshi",
        "password": "$2a$10$YVWmeSv0IOnQoSKDw0TeYe0KBmqF.A6Zfz4OtXqf3YNWi3O0xZDKa",
        "email": "santoshi@iesoftek.com",
        "phone": "9014384942",
        "userType": "COACH",
        "noOfChildrens": 2,
        "otp": "8936",
        "status": "Active",
        "updatedOn": "2019-10-28T06:51:21.439Z",
        "createdOn": "2019-06-25T17:23:21.137Z",
        "__v": 0,
        "deviceToken": "e58pz9VrxOw:APA91bFIi8bGHILqm-puUi1ahjwiu7aYbtiGuKRd63dht6ih5q2grgGEgT0qXBt44TAhv9kqe-N48Cdb3-EUtTDoPH_mvKoW812CjdMStMAxyPUl0Q_xplPYdGnGhJWv3-yJxiLPvCFS",
        "subjectId": "5cf5ff05df0321142b5c0b6f",
        "experience": "3",
        "description": "test",
        "coachingExperience": "4",
        "shortBio": "bio",
        "dialCode": "65",
        "countryCode": "65",
        "mediumOfRegistration": "phone"
      },
      {
        "_id": "5d126d9ce009cc3f0c830760",
        "enabled": true,
        "mobileVerification": true,
        "emailVerification": true,
        "name": "Santhoshi",
        "password": "$2a$10$lA3OpYX3RrAtPgG7.xgBnu0Hx0rz60FTOfvCSx6WXJELRqSIxdpBG",
        "email": "test@gmail.com",
        "phone": "8179297337",
        "userType": "COACH",
        "noOfChildrens": 2,
        "otp": "1234",
        "status": "Active",
        "updatedOn": "2019-08-27T15:41:06.873Z",
        "createdOn": "2019-06-25T18:53:16.439Z",
        "__v": 0,
        "image": "5d126d9ce009cc3f0c830760.png",
        "subjectId": "5cf5ff05df0321142b5c0b6f",
        "experience": "3",
        "description": "sfd",
        "coachingExperience": "2",
        "shortBio": "asdf",
        "dialCode": "65",
        "countryCode": "65",
        "mediumOfRegistration": "phone"
      },
      {
        "_id": "5d134cf6e009cc3f0c830766",
        "enabled": true,
        "mobileVerification": true,
        "emailVerification": true,
        "name": "Sumeet Puri",
        "password": "$2a$10$Lc23Wxht5zWyxI.HWOAnKus3fZyFEBQEYu7zC74bPPvnJdFWiglIq",
        "email": "sumeetpuri@gmail.com",
        "phone": "6591067679",
        "userType": "PARENT",
        "noOfChildrens": 2,
        "otp": "1234",
        "status": "Active",
        "updatedOn": "2019-06-26T10:46:26.160Z",
        "createdOn": "2019-06-26T10:46:14.179Z",
        "__v": 0,
        "dialCode": "65",
        "countryCode": "65",
        "mediumOfRegistration": "phone"
      },
      {
        "_id": "5d36e27873e6aa100d5e9bfb",
        "enabled": true,
        "mobileVerification": true,
        "emailVerification": true,
        "name": "Sumit",
        "password": "$2a$10$pXqDmCi8yLXme/sSL38npOEPYa8qjogQyLoUkEXLulMJ5yLbveWFm",
        "email": "sumit1@iesoftek.com",
        "phone": "9550352807",
        "userType": "PARENT",
        "otp": "2005",
        "status": "Active",
        "updatedOn": "2019-09-10T10:56:32.188Z",
        "createdOn": "2019-07-23T10:33:28.088Z",
        "__v": 0,
        "image": "5d36e27873e6aa100d5e9bfb.png",
        "dialCode": "65",
        "countryCode": "65",
        "mediumOfRegistration": "phone"
      },
      {
        "_id": "5d385b3873e6aa100d5e9c20",
        "enabled": true,
        "mobileVerification": true,
        "emailVerification": true,
        "name": "Ratna",
        "password": "$2a$10$NqTf0f/PEAGDSiIpYDt4I.A5HLaSjrvHWhY/MPCh1XnSkjqjJ1UHa",
        "email": "test5262@gmail.com",
        "phone": "9948955597",
        "userType": "PARENT",
        "noOfChildrens": 2,
        "otp": "1234",
        "status": "Active",
        "updatedOn": "2019-07-24T13:21:08.792Z",
        "createdOn": "2019-07-24T13:20:56.225Z",
        "__v": 0,
        "dialCode": "65",
        "countryCode": "65",
        "mediumOfRegistration": "phone"
      },
      {
        "_id": "5d3953dc73e6aa100d5e9c2a",
        "enabled": true,
        "mobileVerification": true,
        "emailVerification": true,
        "name": "client",
        "password": "$2a$10$u6WnD34KVYelVj0JoDG1iu/e9CEApNyH6AptYxRmXXaDSf1RA9hui",
        "email": "admin@test.com",
        "phone": "9182115028",
        "userType": "COACH",
        "otp": "1234",
        "status": "Active",
        "updatedOn": "2019-07-25T07:01:55.964Z",
        "createdOn": "2019-07-25T07:01:48.944Z",
        "__v": 0,
        "dialCode": "65",
        "countryCode": "65",
        "mediumOfRegistration": "phone"
      }
    ]
  }